{
  "total":60,
  "currentPage":1,
  "nextPage":2,
  "data":[
    {
      "outer-id":"J1EWS4039719",
      "loc":"杨浦区君叶公寓",
      "title":"9:30-18:00 给宝宝洗澡 有提成 不包吃住",
      "salary":"3000.00元/每月"
    },
    {
      "outer-id":"J1EWS0809917",
      "loc":"杨浦区长海三村",
      "title":"包粽子 计件多劳多得 蛋黄肉7毛 其余5毛一个",
      "salary":"150.00元/天"
    },
    {
      "outer-id":"J1EWP4529887",
      "loc":"杨浦区军工路1444号",
      "title":"烧饭卫生接送2年级孩子 六休一 14~19点 需沪",
      "salary":"30.00元/小时"
    },
    {
      "outer-id":"J1EWP4236476",
      "loc":"虹口区江湾镇",
      "title":"送外卖 10：30--13：00 无休",
      "salary":"25.00元/小时"
    },
    {
      "outer-id":"J1EDR2213596",
      "loc":"松江区紫园",
      "title":"烧饭保洁 会煲汤 会西餐",
      "salary":"7000.00元/每月"
    }
  ]
}